FABI Session 4 - Introduction to vegan
…
## Loading required package: permute

## Loading required package: lattice

## This is vegan 2.5-4

Import Data

understory <- read.csv("Forest Understory Species.csv")

The data is organized in rows of forest plots and columns of variables that indicate if each species was present (multivariate).

as_tibble(understory)

## # A tibble: 61 x 54
##    Forest Tree.Number Focal.Tree Rainfall Podocarpus.lati Olea.capensis.s
##    <fct>  <fct>       <fct>         <int>            <int>            <int>
##  1 Groot GVB01       Olea cape      467                1                1
##  2 Groot GVB02       Olea cape      405                1                1
##  3 Groot GVB03       Olinia ve      310                1                1
##  4 Groot GVB04       Cunonia c      259                0                0
##  5 Groot GVB05       Cunonia c      264                0                1
##  6 Groot GVB06       Cunonia c      269                0                0
##  7 Groot GVB07       Podocarpu      364                1                1
##  8 Groot GVB08       Olea cape      248                0                1
##  9 Groot GVB09       Rapanea m      304                0                1
## 10 Groot GVB10       Rapanea m      360                0                1
## # ... with 51 more rows, and 48 more variables:
## #   Pterocelastrus.rostratus <int>, Pterpcelstrus.tricuspidatus <int>,
## #   Olinia.ventosa <int>, Cunonia.capensis <int>,
## #   Cassine.schinoides <int>, Cassine.peragua <int>,
## #   Afrocarpus.falcatus <int>, Afrocanthium.mundianum <int>,
## #   Rapanea.melanophloeos <int>, Ocotea.bullata <int>,
## #   Scolopia.zeyheri <int>, Sequoiadendron.gigantum <int>,
## #   Burchellia.bubalina <int>, Canthium.inerme <int>,
## #   Rothmannia.capensis <int>, Maytenus.acuminata <int>,
…
