FABI Session 3 - Introduction to dplyr
…
Sample Sizes

Lets rather start by summarizing the number of measurements made for each plant on each day.

Recall that there are at least 10 measurements per plant, per day of measurement (day after inoc).

Plant.Measurements <- data.filtered %>% group_by(Unique.Sample.Number,Days.after.inoculation) %>% summarize(n=n()) #the n=n() is a super nice function in dplyr to calculate the number of rows (measurements in our case).

#We could also do n=length() I think

as.tibble(Plant.Measurements)

## # A tibble: 154 x 3
##    Unique.Sample.Number Days.after.inoculation     n
##    <fct>                <fct>                  <int>
##  1 1DroughtControl1     9                         10
##  2 1DroughtControl1     22                        13
##  3 1DroughtControl10    13                        10
##  4 1DroughtControl10    35                        10
##  5 1DroughtControl2     35                        11
##  6 1DroughtControl3     22                        11
##  7 1DroughtControl5     9                         10
##  8 1DroughtControl6     22                        11
##  9 1DroughtControl6     35                        10
## 10 1DroughtControl7     37                        11
## # ... with 144 more rows
…
Mean per plant

Ok, next we can look at means. Lets calculate the mean photosynthesis value per plant (but lets keep all of our other variables of interest by including them in group_by()

Plant.Mean.Photo <- data.filtered %>% group_by(Unique.Sample.Number,Trial,Treatment,Species,Days.after.inoculation) %>% summarize(plant.average=mean(Photosynthesis,na.rm=TRUE))

Here we are cacluating the a plant average (mean) for each plant.

as.tibble(Plant.Mean.Photo)

## # A tibble: 154 x 6
##    Unique.Sample.N Trial Treatment Species Days.after.inoc plant.average
##    <fct>            <fct> <fct>     <fct>   <fct>                    <dbl>
##  1 1DroughtControl1 1     Drought   Control 9                       1.66  
##  2 1DroughtControl1 1     Drought   Control 22                      2.13  
##  3 1DroughtControl 1     Drought   Control 13                      0.492 
##  4 1DroughtControl 1     Drought   Control 35                      0.528 
##  5 1DroughtControl2 1     Drought   Control 35                      0.0851
##  6 1DroughtControl3 1     Drought   Control 22                      3.90  
##  7 1DroughtControl5 1     Drought   Control 9                       4.76  
##  8 1DroughtControl6 1     Drought   Control 22                      1.04  
##  9 1DroughtControl6 1     Drought   Control 35                      1.09  
## 10 1DroughtControl7 1     Drought   Control 37                      0.0491
## # ... with 144 more rows
…
Each plant is a sampling unit, so we want to conduct our analysis with a single value for each plant. If we include each measurement as a seperate observation, we are incorporating pseudoreplication because each measurement was not independant (10 measurements were made on a single planttherefore, each measurement is dependant on the plant).

Mean per group

Ok now that we have the means per plant, we can look at the means per trial, treatment, etc.

Group.Mean.Photo <- Plant.Mean.Photo %>% group_by(Treatment,Species,Days.after.inoculation) %>% summarize(n=n(), mean=mean(plant.average),sd=sd(plant.average),se = sd / sqrt(n),lowse = (mean-se),highse = (mean+se)) #notice here we also calculate sd, se, and the low and high values)

This time we also calculated a few other variables (e.g.sample size, standard deviation, and standard error)

as.tibble(Group.Mean.Photo)

## # A tibble: 48 x 9
##    Treatment Species Days.after.inoc     n  mean     sd     se  lowse
##    <fct>     <fct>   <fct>            <int> <dbl>  <dbl>  <dbl>  <dbl>
##  1 Drought   Control 3                    1 1.13  NA     NA     NA    
##  2 Drought   Control 6                    2 0.656  0.662  0.468  0.188
##  3 Drought   Control 9                    5 2.59   2.81   1.26   1.34 
##  4 Drought   Control 13                   1 0.492 NA     NA     NA    
##  5 Drought   Control 17                   2 1.47   1.45   1.03   0.438
##  6 Drought   Control 22                   3 2.36   1.44   0.831  1.53 
##  7 Drought   Control 35                   5 1.71   1.75   0.782  0.925
##  8 Drought   Control 37                   4 0.520  0.498  0.249  0.271
##  9 Drought   P. cin 6                    1 0.194 NA     NA     NA    
## 10 Drought   P. cin 9                    4 2.88   3.55   1.78   1.10 
## # ... with 38 more rows, and 1 more variable: highse <dbl>
…
